data/output_data/Force_Control/MC3A_FT_sensor_step_tests_2/Fx_scope.csv

Model,DPO4034B
Firmware Version,1.26

Waveform Type,Analog
Point Format,Y
Horizontal Units,s
Horizontal Scale,0.2
Horizontal Delay,0
Sample Interval,0.0002
Record Length,10000
Gating,0.0% to 100.0%
Probe Attenuation,1
Vertical Units,V
Vertical Offset,0
Vertical Scale,0.05
Vertical Position,-2.42
Label,Mx
TIME,CH1
-1.000e+00,-0.051
-9.998e-01,-0.051
-9.996e-01,-0.053
-9.994e-01,-0.051
-9.992e-01,-0.055
-9.990e-01,-0.051
-9.988e-01,-0.053
-9.986e-01,-0.053
-9.984e-01,-0.055
-9.982e-01,-0.053
-9.980e-01,-0.055
-9.978e-01,-0.057
-9.976e-01,-0.057
-9.974e-01,-0.057
-9.972e-01,-0.055
-9.970e-01,-0.059
-9.968e-01,-0.057
-9.966e-01,-0.057
-9.964e-01,-0.057
-9.962e-01,-0.055
-9.960e-01,-0.057
-9.958e-01,-0.057
-9.956e-01,-0.057
-9.954e-01,-0.055
-9.952e-01,-0.057
-9.950e-01,-0.053
-9.948e-01,-0.051
-9.946e-01,-0.053
-9.944e-01,-0.055
-9.942e-01,-0.053
-9.940e-01,-0.051
-9.938e-01,-0.051
-9.936e-01,-0.053
-9.934e-01,-0.053
-9.932e-01,-0.053
-9.930e-01,-0.055
-9.928e-01,-0.051
-9.926e-01,-0.053
-9.924e-01,-0.053
-9.922e-01,-0.053
-9.920e-01,-0.057
-9.918e-01,-0.053
-9.916e-01,-0.055
-9.914e-01,-0.051
-9.912e-01,-0.053
-9.910e-01,-0.053
-9.908e-01,-0.055
-9.906e-01,-0.055
-9.904e-01,-0.057
-9.902e-01,-0.055
-9.900e-01,-0.053
-9.898e-01,-0.055
-9.896e-01,-0.055
-9.894e-01,-0.053
-9.892e-01,-0.055
-9.890e-01,-0.055
-9.888e-01,-0.053
-9.886e-01,-0.051
-9.884e-01,-0.051
-9.882e-01,-0.049
-9.880e-01,-0.049
-9.878e-01,-0.049
-9.876e-01,-0.049
-9.874e-01,-0.049
-9.872e-01,-0.051
-9.870e-01,-0.053
-9.868e-01,-0.055
-9.866e-01,-0.055
-9.864e-01,-0.055
-9.862e-01,-0.055
-9.860e-01,-0.057
-9.858e-01,-0.053
-9.856e-01,-0.057
-9.854e-01,-0.053
-9.852e-01,-0.055
-9.850e-01,-0.053
-9.848e-01,-0.057
-9.846e-01,-0.053
-9.844e-01,-0.053
-9.842e-01,-0.053
-9.840e-01,-0.053
-9.838e-01,-0.053
-9.836e-01,-0.053
-9.834e-01,-0.055
-9.832e-01,-0.051
-9.830e-01,-0.053
-9.828e-01,-0.053
-9.826e-01,-0.051
-9.824e-01,-0.053
-9.822e-01,-0.049
-9.820e-01,-0.051
-9.818e-01,-0.051
-9.816e-01,-0.053
-9.814e-01,-0.053
-9.812e-01,-0.055
-9.810e-01,-0.059
-9.808e-01,-0.055
-9.806e-01,-0.053
-9.804e-01,-0.053
-9.802e-01,-0.055
-9.800e-01,-0.055
-9.798e-01,-0.057
-9.796e-01,-0.055
-9.794e-01,-0.055
-9.792e-01,-0.055
-9.790e-01,-0.053
-9.788e-01,-0.053
-9.786e-01,-0.051
-9.784e-01,-0.051
-9.782e-01,-0.053
-9.780e-01,-0.051
-9.778e-01,-0.051
-9.776e-01,-0.051
-9.774e-01,-0.051
-9.772e-01,-0.051
-9.770e-01,-0.051
-9.768e-01,-0.051
-9.766e-01,-0.049
-9.764e-01,-0.051
-9.762e-01,-0.049
-9.760e-01,-0.051
-9.758e-01,-0.055
-9.756e-01,-0.053
-9.754e-01,-0.055
-9.752e-01,-0.055
-9.750e-01,-0.055
-9.748e-01,-0.057
-9.746e-01,-0.059
-9.744e-01,-0.057
-9.742e-01,-0.057
-9.740e-01,-0.055
-9.738e-01,-0.055
-9.736e-01,-0.055
-9.734e-01,-0.055
-9.732e-01,-0.051
-9.730e-01,-0.053
-9.728e-01,-0.051
-9.726e-01,-0.053
-9.724e-01,-0.053
-9.722e-01,-0.051
-9.720e-01,-0.053
-9.718e-01,-0.055
-9.716e-01,-0.053
-9.714e-01,-0.051
-9.712e-01,-0.051
-9.710e-01,-0.051
-9.708e-01,-0.051
-9.706e-01,-0.047
-9.704e-01,-0.051
-9.702e-01,-0.049
-9.700e-01,-0.051
-9.698e-01,-0.053
-9.696e-01,-0.051
-9.694e-01,-0.053
-9.692e-01,-0.055
-9.690e-01,-0.055
-9.688e-01,-0.055
-9.686e-01,-0.057
-9.684e-01,-0.057
-9.682e-01,-0.055
-9.680e-01,-0.055
-9.678e-01,-0.053
-9.676e-01,-0.055
-9.674e-01,-0.055
-9.672e-01,-0.053
-9.670e-01,-0.053
-9.668e-01,-0.053
-9.666e-01,-0.053
-9.664e-01,-0.053
-9.662e-01,-0.051
-9.660e-01,-0.053
-9.658e-01,-0.051
-9.656e-01,-0.051
-9.654e-01,-0.051
-9.652e-01,-0.051
-9.650e-01,-0.051
-9.648e-01,-0.051
-9.646e-01,-0.055
-9.644e-01,-0.055
-9.642e-01,-0.055
-9.640e-01,-0.055
-9.638e-01,-0.055
-9.636e-01,-0.051
-9.634e-01,-0.053
-9.632e-01,-0.051
-9.630e-01,-0.053
-9.628e-01,-0.057
-9.626e-01,-0.057
-9.624e-01,-0.055
-9.622e-01,-0.057
-9.620e-01,-0.057
-9.618e-01,-0.059
-9.616e-01,-0.055
-9.614e-01,-0.055
-9.612e-01,-0.055
-9.610e-01,-0.053
-9.608e-01,-0.053
-9.606e-01,-0.055
-9.604e-01,-0.055
-9.602e-01,-0.051
-9.600e-01,-0.055
-9.598e-01,-0.053
-9.596e-01,-0.053
-9.594e-01,-0.053
-9.592e-01,-0.053
-9.590e-01,-0.053
-9.588e-01,-0.049
-9.586e-01,-0.049
-9.584e-01,-0.051
-9.582e-01,-0.053
-9.580e-01,-0.053
-9.578e-01,-0.053
-9.576e-01,-0.051
-9.574e-01,-0.055
-9.572e-01,-0.053
-9.570e-01,-0.057
-9.568e-01,-0.057
-9.566e-01,-0.059
-9.564e-01,-0.055
-9.562e-01,-0.055
-9.560e-01,-0.055
-9.558e-01,-0.057
-9.556e-01,-0.057
-9.554e-01,-0.055
-9.552e-01,-0.055
-9.550e-01,-0.053
-9.548e-01,-0.053
-9.546e-01,-0.055
-9.544e-01,-0.051
-9.542e-01,-0.051
-9.540e-01,-0.049
-9.538e-01,-0.051
-9.536e-01,-0.053
-9.534e-01,-0.055
-9.532e-01,-0.053
-9.530e-01,-0.055
-9.528e-01,-0.055
-9.526e-01,-0.055
-9.524e-01,-0.055
-9.522e-01,-0.055
-9.520e-01,-0.053
-9.518e-01,-0.055
-9.516e-01,-0.053
-9.514e-01,-0.053
-9.512e-01,-0.053
-9.510e-01,-0.051
-9.508e-01,-0.051
-9.506e-01,-0.053
-9.504e-01,-0.051
-9.502e-01,-0.049
-9.500e-01,-0.051
-9.498e-01,-0.053
-9.496e-01,-0.049
-9.494e-01,-0.049
-9.492e-01,-0.053
-9.490e-01,-0.051
-9.488e-01,-0.051
-9.486e-01,-0.051
-9.484e-01,-0.055
-9.482e-01,-0.053
-9.480e-01,-0.057
-9.478e-01,-0.057
-9.476e-01,-0.059
-9.474e-01,-0.059
-9.472e-01,-0.055
-9.470e-01,-0.057
-9.468e-01,-0.055
-9.466e-01,-0.055
-9.464e-01,-0.057
-9.462e-01,-0.055
-9.460e-01,-0.055
-9.458e-01,-0.055
-9.456e-01,-0.055
-9.454e-01,-0.053
-9.452e-01,-0.055
-9.450e-01,-0.055
-9.448e-01,-0.055
-9.446e-01,-0.055
-9.444e-01,-0.055
-9.442e-01,-0.053
-9.440e-01,-0.053
-9.438e-01,-0.053
-9.436e-01,-0.053
-9.434e-01,-0.051
-9.432e-01,-0.051
-9.430e-01,-0.051
-9.428e-01,-0.053
-9.426e-01,-0.053
-9.424e-01,-0.051
-9.422e-01,-0.053
-9.420e-01,-0.051
-9.418e-01,-0.053
-9.416e-01,-0.053
-9.414e-01,-0.055
-9.412e-01,-0.055
-9.410e-01,-0.055
-9.408e-01,-0.055
-9.406e-01,-0.059
-9.404e-01,-0.055
-9.402e-01,-0.057
-9.400e-01,-0.057
-9.398e-01,-0.057
-9.396e-01,-0.055
-9.394e-01,-0.053
-9.392e-01,-0.055
-9.390e-01,-0.055
-9.388e-01,-0.053
-9.386e-01,-0.053
-9.384e-01,-0.051
-9.382e-01,-0.049
-9.380e-01,-0.049
-9.378e-01,-0.049
-9.376e-01,-0.049
-9.374e-01,-0.049
-9.372e-01,-0.049
-9.370e-01,-0.049
-9.368e-01,-0.049
-9.366e-01,-0.051
-9.364e-01,-0.051
-9.362e-01,-0.053
-9.360e-01,-0.051
-9.358e-01,-0.053
-9.356e-01,-0.053
-9.354e-01,-0.053
-9.352e-01,-0.051
-9.350e-01,-0.053
-9.348e-01,-0.051
-9.346e-01,-0.051
-9.344e-01,-0.053
-9.342e-01,-0.053
-9.340e-01,-0.051
-9.338e-01,-0.051
-9.336e-01,-0.049
-9.334e-01,-0.049
-9.332e-01,-0.049
-9.330e-01,-0.051
-9.328e-01,-0.051
-9.326e-01,-0.053
-9.324e-01,-0.051
-9.322e-01,-0.053
-9.320e-01,-0.051
-9.318e-01,-0.051
-9.316e-01,-0.053
-9.314e-01,-0.055
-9.312e-01,-0.053
-9.310e-01,-0.053
-9.308e-01,-0.055
-9.306e-01,-0.055
-9.304e-01,-0.055
-9.302e-01,-0.055
-9.300e-01,-0.053
-9.298e-01,-0.055
-9.296e-01,-0.055
-9.294e-01,-0.057
-9.292e-01,-0.055
-9.290e-01,-0.057
-9.288e-01,-0.057
-9.286e-01,-0.055
-9.284e-01,-0.055
-9.282e-01,-0.053
-9.280e-01,-0.051
-9.278e-01,-0.051
-9.276e-01,-0.051
-9.274e-01,-0.051
-9.272e-01,-0.049
-9.270e-01,-0.051
-9.268e-01,-0.049
-9.266e-01,-0.049
-9.264e-01,-0.049
-9.262e-01,-0.051
-9.260e-01,-0.051
-9.258e-01,-0.053
-9.256e-01,-0.055
-9.254e-01,-0.053
-9.252e-01,-0.055
-9.250e-01,-0.055
-9.248e-01,-0.053
-9.246e-01,-0.053
-9.244e-01,-0.057
-9.242e-01,-0.053
-9.240e-01,-0.055
-9.238e-01,-0.055
-9.236e-01,-0.053
-9.234e-01,-0.053
-9.232e-01,-0.053
-9.230e-01,-0.053
-9.228e-01,-0.053
-9.226e-01,-0.051
-9.224e-01,-0.051
-9.222e-01,-0.049
-9.220e-01,-0.053
-9.218e-01,-0.051
-9.216e-01,-0.051
-9.214e-01,-0.051
-9.212e-01,-0.049
-9.210e-01,-0.049
-9.208e-01,-0.053
-9.206e-01,-0.053
-9.204e-01,-0.053
-9.202e-01,-0.053
-9.200e-01,-0.055
-9.198e-01,-0.053
-9.196e-01,-0.053
-9.194e-01,-0.053
-9.192e-01,-0.051
-9.190e-01,-0.055
-9.188e-01,-0.055
-9.186e-01,-0.057
-9.184e-01,-0.055
-9.182e-01,-0.055
-9.180e-01,-0.057
-9.178e-01,-0.057
-9.176e-01,-0.053
-9.174e-01,-0.049
-9.172e-01,-0.053
-9.170e-01,-0.051
-9.168e-01,-0.049
-9.166e-01,-0.051
-9.164e-01,-0.051
-9.162e-01,-0.051
-9.160e-01,-0.051
-9.158e-01,-0.051
-9.156e-01,-0.051
-9.154e-01,-0.051
-9.152e-01,-0.053
-9.150e-01,-0.053
-9.148e-01,-0.051
-9.146e-01,-0.055
-9.144e-01,-0.057
-9.142e-01,-0.059
-9.140e-01,-0.057
-9.138e-01,-0.059
-9.136e-01,-0.057
-9.134e-01,-0.057
-9.132e-01,-0.057
-9.130e-01,-0.057
-9.128e-01,-0.057
-9.126e-01,-0.059
-9.124e-01,-0.059
-9.122e-01,-0.055
-9.120e-01,-0.057
-9.118e-01,-0.055
-9.116e-01,-0.055
-9.114e-01,-0.055
-9.112e-01,-0.051
-9.110e-01,-0.053
-9.108e-01,-0.053
-9.106e-01,-0.051
-9.104e-01,-0.051
-9.102e-01,-0.051
-9.100e-01,-0.053
-9.098e-01,-0.051
-9.096e-01,-0.053
-9.094e-01,-0.053
-9.092e-01,-0.053
-9.090e-01,-0.053
-9.088e-01,-0.053
-9.086e-01,-0.053
-9.084e-01,-0.055
-9.082e-01,-0.057
-9.080e-01,-0.055
-9.078e-01,-0.055
-9.076e-01,-0.055
-9.074e-01,-0.055
-9.072e-01,-0.057
-9.070e-01,-0.055
-9.068e-01,-0.055
-9.066e-01,-0.057
-9.064e-01,-0.055
-9.062e-01,-0.055
-9.060e-01,-0.057
-9.058e-01,-0.057
-9.056e-01,-0.055
-9.054e-01,-0.055
-9.052e-01,-0.053
-9.050e-01,-0.053
-9.048e-01,-0.053
-9.046e-01,-0.053
-9.044e-01,-0.051
-9.042e-01,-0.051
-9.040e-01,-0.051
-9.038e-01,-0.049
-9.036e-01,-0.049
-9.034e-01,-0.053
-9.032e-01,-0.053
-9.030e-01,-0.055
-9.028e-01,-0.055
-9.026e-01,-0.055
-9.024e-01,-0.055
-9.022e-01,-0.055
-9.020e-01,-0.057
-9.018e-01,-0.055
-9.016e-01,-0.055
-9.014e-01,-0.055
-9.012e-01,-0.053
-9.010e-01,-0.053
-9.008e-01,-0.055
-9.006e-01,-0.053
-9.004e-01,-0.053
-9.002e-01,-0.053
-9.000e-01,-0.051
-8.998e-01,-0.053
-8.996e-01,-0.053
-8.994e-01,-0.053
-8.992e-01,-0.051
-8.990e-01,-0.049
-8.988e-01,-0.049
-8.986e-01,-0.051
-8.984e-01,-0.051
-8.982e-01,-0.047
-8.980e-01,-0.053
-8.978e-01,-0.053
-8.976e-01,-0.057
-8.974e-01,-0.057
-8.972e-01,-0.057
-8.970e-01,-0.057
-8.968e-01,-0.055
-8.966e-01,-0.055
-8.964e-01,-0.057
-8.962e-01,-0.057
-8.960e-01,-0.059
-8.958e-01,-0.057
-8.956e-01,-0.057
-8.954e-01,-0.053
-8.952e-01,-0.057
-8.950e-01,-0.055
-8.948e-01,-0.055
-8.946e-01,-0.055
-8.944e-01,-0.053
-8.942e-01,-0.055
-8.940e-01,-0.055
-8.938e-01,-0.051
-8.936e-01,-0.053
-8.934e-01,-0.053
-8.932e-01,-0.053
-8.930e-01,-0.055
-8.928e-01,-0.055
-8.926e-01,-0.057
-8.924e-01,-0.057
-8.922e-01,-0.055
-8.920e-01,-0.053
-8.918e-01,-0.055
-8.916e-01,-0.053
-8.914e-01,-0.055
-8.912e-01,-0.053
-8.910e-01,-0.053
-8.908e-01,-0.055
-8.906e-01,-0.055
-8.904e-01,-0.055
-8.902e-01,-0.055
-8.900e-01,-0.055
-8.898e-01,-0.055
-8.896e-01,-0.055
-8.894e-01,-0.053
-8.892e-01,-0.055
-8.890e-01,-0.053
-8.888e-01,-0.053
-8.886e-01,-0.051
-8.884e-01,-0.053
-8.882e-01,-0.051
-8.880e-01,-0.051
-8.878e-01,-0.053
-8.876e-01,-0.053
-8.874e-01,-0.051
-8.872e-01,-0.049
-8.870e-01,-0.049
-8.868e-01,-0.053
-8.866e-01,-0.053
-8.864e-01,-0.051
-8.862e-01,-0.051
-8.860e-01,-0.051
-8.858e-01,-0.053
-8.856e-01,-0.051
-8.854e-01,-0.053
-8.852e-01,-0.053
-8.850e-01,-0.055
-8.848e-01,-0.053
-8.846e-01,-0.051
-8.844e-01,-0.051
-8.842e-01,-0.049
-8.840e-01,-0.053
-8.838e-01,-0.047
-8.836e-01,-0.051
-8.834e-01,-0.053
-8.832e-01,-0.047
-8.830e-01,-0.051
-8.828e-01,-0.053
-8.826e-01,-0.049
-8.824e-01,-0.047
-8.822e-01,-0.049
-8.820e-01,-0.049
-8.818e-01,-0.053
-8.816e-01,-0.053
-8.814e-01,-0.055
-8.812e-01,-0.053
-8.810e-01,-0.055
-8.808e-01,-0.059
-8.806e-01,-0.059
-8.804e-01,-0.057
-8.802e-01,-0.059
-8.800e-01,-0.057
-8.798e-01,-0.059
-8.796e-01,-0.059
-8.794e-01,-0.057
-8.792e-01,-0.057
-8.790e-01,-0.053
-8.788e-01,-0.057
-8.786e-01,-0.057
-8.784e-01,-0.057
-8.782e-01,-0.055
-8.780e-01,-0.053
-8.778e-01,-0.053
-8.776e-01,-0.049
-8.774e-01,-0.051
-8.772e-01,-0.051
-8.770e-01,-0.051
-8.768e-01,-0.051
-8.766e-01,-0.051
-8.764e-01,-0.051
-8.762e-01,-0.051
-8.760e-01,-0.049
-8.758e-01,-0.055
-8.756e-01,-0.053
-8.754e-01,-0.053
-8.752e-01,-0.055
-8.750e-01,-0.055
-8.748e-01,-0.055
-8.746e-01,-0.055
-8.744e-01,-0.053
-8.742e-01,-0.055
-8.740e-01,-0.057
-8.738e-01,-0.059
-8.736e-01,-0.057
-8.734e-01,-0.057
-8.732e-01,-0.059
-8.730e-01,-0.057
-8.728e-01,-0.055
-8.726e-01,-0.057
-8.724e-01,-0.055
-8.722e-01,-0.055
-8.720e-01,-0.055
-8.718e-01,-0.057
-8.716e-01,-0.051
-8.714e-01,-0.051
-8.712e-01,-0.053
-8.710e-01,-0.051
-8.708e-01,-0.053
-8.706e-01,-0.051
-8.704e-01,-0.051
-8.702e-01,-0.049
-8.700e-01,-0.049
-8.698e-01,-0.051
-8.696e-01,-0.051
-8.694e-01,-0.053
-8.692e-01,-0.053
-8.690e-01,-0.051
-8.688e-01,-0.055
-8.686e-01,-0.055
-8.684e-01,-0.053
-8.682e-01,-0.057
-8.680e-01,-0.053
-8.678e-01,-0.055
-8.676e-01,-0.055
-8.674e-01,-0.053
-8.672e-01,-0.051
-8.670e-01,-0.051
-8.668e-01,-0.053
-8.666e-01,-0.053
-8.664e-01,-0.051
-8.662e-01,-0.053
-8.660e-01,-0.051
-8.658e-01,-0.053
-8.656e-01,-0.051
-8.654e-01,-0.049
-8.652e-01,-0.051
-8.650e-01,-0.053
-8.648e-01,-0.055
-8.646e-01,-0.053
-8.644e-01,-0.055
-8.642e-01,-0.057
-8.640e-01,-0.057
-8.638e-01,-0.055
-8.636e-01,-0.055
-8.634e-01,-0.057
-8.632e-01,-0.057
-8.630e-01,-0.057
-8.628e-01,-0.057
-8.626e-01,-0.057
-8.624e-01,-0.057
-8.622e-01,-0.055
-8.620e-01,-0.053
-8.618e-01,-0.057
-8.616e-01,-0.055
-8.614e-01,-0.055
-8.612e-01,-0.053
-8.610e-01,-0.053
-8.608e-01,-0.051
-8.606e-01,-0.055
-8.604e-01,-0.053
-8.602e-01,-0.051
-8.600e-01,-0.051
-8.598e-01,-0.053
-8.596e-01,-0.055
-8.594e-01,-0.053
-8.592e-01,-0.057
-8.590e-01,-0.055
-8.588e-01,-0.053
-8.586e-01,-0.053
-8.584e-01,-0.053
-8.582e-01,-0.055
-8.580e-01,-0.055
-8.578e-01,-0.055
-8.576e-01,-0.055
-8.574e-01,-0.053
-8.572e-01,-0.055
-8.570e-01,-0.057
-8.568e-01,-0.059
-8.566e-01,-0.055
-8.564e-01,-0.057
-8.562e-01,-0.059
-8.560e-01,-0.057
-8.558e-01,-0.061
-8.556e-01,-0.055
-8.554e-01,-0.055
-8.552e-01,-0.053
-8.550e-01,-0.053
-8.548e-01,-0.053
-8.546e-01,-0.053
-8.544e-01,-0.053
-8.542e-01,-0.049
-8.540e-01,-0.055
-8.538e-01,-0.053
-8.536e-01,-0.055
-8.534e-01,-0.053
-8.532e-01,-0.055
-8.530e-01,-0.055
-8.528e-01,-0.053
-8.526e-01,-0.055
-8.524e-01,-0.057
-8.522e-01,-0.053
-8.520e-01,-0.055
-8.518e-01,-0.055
-8.516e-01,-0.057
-8.514e-01,-0.057
-8.512e-01,-0.057
-8.510e-01,-0.053
-8.508e-01,-0.051
-8.506e-01,-0.051
-8.504e-01,-0.049
-8.502e-01,-0.051
-8.500e-01,-0.049
-8.498e-01,-0.051
-8.496e-01,-0.049
-8.494e-01,-0.051
-8.492e-01,-0.051
-8.490e-01,-0.051
-8.488e-01,-0.053
-8.486e-01,-0.051
-8.484e-01,-0.053
-8.482e-01,-0.051
-8.480e-01,-0.053
-8.478e-01,-0.057
-8.476e-01,-0.059
-8.474e-01,-0.059
-8.472e-01,-0.055
-8.470e-01,-0.055
-8.468e-01,-0.057
-8.466e-01,-0.057
-8.464e-01,-0.055
-8.462e-01,-0.057
-8.460e-01,-0.059
-8.458e-01,-0.057
-8.456e-01,-0.055
-8.454e-01,-0.053
-8.452e-01,-0.053
-8.450e-01,-0.053
-8.448e-01,-0.051
-8.446e-01,-0.053
-8.444e-01,-0.053
-8.442e-01,-0.053
-8.440e-01,-0.053
-8.438e-01,-0.053
-8.436e-01,-0.053
-8.434e-01,-0.051
-8.432e-01,-0.053
-8.430e-01,-0.049
-8.428e-01,-0.053
-8.426e-01,-0.055
-8.424e-01,-0.053
-8.422e-01,-0.053
-8.420e-01,-0.053
-8.418e-01,-0.055
-8.416e-01,-0.053
-8.414e-01,-0.053
-8.412e-01,-0.055
-8.410e-01,-0.053
-8.408e-01,-0.055
-8.406e-01,-0.055
-8.404e-01,-0.055
-8.402e-01,-0.059
-8.400e-01,-0.057
-8.398e-01,-0.057
-8.396e-01,-0.055
-8.394e-01,-0.055
-8.392e-01,-0.057
-8.390e-01,-0.055
-8.388e-01,-0.055
-8.386e-01,-0.053
-8.384e-01,-0.051
-8.382e-01,-0.051
-8.380e-01,-0.049
-8.378e-01,-0.051
-8.376e-01,-0.049
-8.374e-01,-0.047
-8.372e-01,-0.051
-8.370e-01,-0.051
-8.368e-01,-0.053
-8.366e-01,-0.053
-8.364e-01,-0.053
-8.362e-01,-0.053
-8.360e-01,-0.055
-8.358e-01,-0.053
-8.356e-01,-0.055
-8.354e-01,-0.053
-8.352e-01,-0.055
-8.350e-01,-0.055
-8.348e-01,-0.057
-8.346e-01,-0.055
-8.344e-01,-0.055
-8.342e-01,-0.055
-8.340e-01,-0.053
-8.338e-01,-0.053
-8.336e-01,-0.051
-8.334e-01,-0.051
-8.332e-01,-0.049
-8.330e-01,-0.051
-8.328e-01,-0.047
-8.326e-01,-0.053
-8.324e-01,-0.053
-8.322e-01,-0.049
-8.320e-01,-0.051
-8.318e-01,-0.051
-8.316e-01,-0.053
-8.314e-01,-0.051
-8.312e-01,-0.053
-8.310e-01,-0.057
-8.308e-01,-0.057
-8.306e-01,-0.057
-8.304e-01,-0.055
-8.302e-01,-0.053
-8.300e-01,-0.053
-8.298e-01,-0.055
-8.296e-01,-0.053
-8.294e-01,-0.053
-8.292e-01,-0.055
-8.290e-01,-0.055
-8.288e-01,-0.057
-8.286e-01,-0.053
-8.284e-01,-0.053
-8.282e-01,-0.053
-8.280e-01,-0.053
-8.278e-01,-0.053
-8.276e-01,-0.053
-8.274e-01,-0.055
-8.272e-01,-0.053
-8.270e-01,-0.055
-8.268e-01,-0.055
-8.266e-01,-0.055
-8.264e-01,-0.055
-8.262e-01,-0.055
-8.260e-01,-0.055
-8.258e-01,-0.055
-8.256e-01,-0.057
-8.254e-01,-0.055
-8.252e-01,-0.057
-8.250e-01,-0.055
-8.248e-01,-0.057
-8.246e-01,-0.055
-8.244e-01,-0.055
-8.242e-01,-0.053
-8.240e-01,-0.055
-8.238e-01,-0.057
-8.236e-01,-0.055
-8.234e-01,-0.055
-8.232e-01,-0.055
-8.230e-01,-0.057
-8.228e-01,-0.055
-8.226e-01,-0.053
-8.224e-01,-0.053
-8.222e-01,-0.053
-8.220e-01,-0.053
-8.218e-01,-0.053
-8.216e-01,-0.049
-8.214e-01,-0.049
-8.212e-01,-0.051
-8.210e-01,-0.047
-8.208e-01,-0.051
-8.206e-01,-0.051
-8.204e-01,-0.053
-8.202e-01,-0.051
-8.200e-01,-0.053
-8.198e-01,-0.053
-8.196e-01,-0.053
-8.194e-01,-0.053
-8.192e-01,-0.053
-8.190e-01,-0.055
-8.188e-01,-0.057
-8.186e-01,-0.055
-8.184e-01,-0.057
-8.182e-01,-0.057
-8.180e-01,-0.057
-8.178e-01,-0.055
-8.176e-01,-0.053
-8.174e-01,-0.055
-8.172e-01,-0.053
-8.170e-01,-0.051
-8.168e-01,-0.051
-8.166e-01,-0.051
-8.164e-01,-0.051
-8.162e-01,-0.051
-8.160e-01,-0.053
-8.158e-01,-0.051
-8.156e-01,-0.051
-8.154e-01,-0.053
-8.152e-01,-0.051
-8.150e-01,-0.049
-8.148e-01,-0.053
-8.146e-01,-0.055
-8.144e-01,-0.055
-8.142e-01,-0.059
-8.140e-01,-0.057
-8.138e-01,-0.055
-8.136e-01,-0.055
-8.134e-01,-0.055
-8.132e-01,-0.053
-8.130e-01,-0.055
-8.128e-01,-0.053
-8.126e-01,-0.057
-8.124e-01,-0.055
-8.122e-01,-0.057
-8.120e-01,-0.057
-8.118e-01,-0.055
-8.116e-01,-0.055
-8.114e-01,-0.053
-8.112e-01,-0.053
-8.110e-01,-0.053
-8.108e-01,-0.053
-8.106e-01,-0.053
-8.104e-01,-0.051
-8.102e-01,-0.051
-8.100e-01,-0.051
-8.098e-01,-0.047
-8.096e-01,-0.049
-8.094e-01,-0.051
-8.092e-01,-0.051
-8.090e-01,-0.053
-8.088e-01,-0.055
-8.086e-01,-0.053
-8.084e-01,-0.053
-8.082e-01,-0.053
-8.080e-01,-0.055
-8.078e-01,-0.055
-8.076e-01,-0.055
-8.074e-01,-0.053
-8.072e-01,-0.055
-8.070e-01,-0.055
-8.068e-01,-0.055
-8.066e-01,-0.055
-8.064e-01,-0.057
-8.062e-01,-0.057
-8.060e-01,-0.055
-8.058e-01,-0.057
-8.056e-01,-0.055
-8.054e-01,-0.057
-8.052e-01,-0.055
-8.050e-01,-0.055
-8.048e-01,-0.053
-8.046e-01,-0.051
-8.044e-01,-0.051
-8.042e-01,-0.049
-8.040e-01,-0.049
-8.038e-01,-0.051
-8.036e-01,-0.051
-8.034e-01,-0.053
-8.032e-01,-0.055
-8.030e-01,-0.057
-8.028e-01,-0.055
-8.026e-01,-0.053
-8.024e-01,-0.055
-8.022e-01,-0.053
-8.020e-01,-0.051
-8.018e-01,-0.053
-8.016e-01,-0.055
-8.014e-01,-0.055
-8.012e-01,-0.053
-8.010e-01,-0.051
-8.008e-01,-0.051
-8.006e-01,-0.049
-8.004e-01,-0.051
-8.002e-01,-0.053
-8.000e-01,-0.053
-7.998e-01,-0.053
-7.996e-01,-0.053
-7.994e-01,-0.051
-7.992e-01,-0.051
-7.990e-01,-0.053
-7.988e-01,-0.053
-7.986e-01,-0.053
-7.984e-01,-0.053
-7.982e-01,-0.053
-7.980e-01,-0.053
-7.978e-01,-0.055
-7.976e-01,-0.057
-7.974e-01,-0.057
-7.972e-01,-0.055
-7.970e-01,-0.053
-7.968e-01,-0.053
-7.966e-01,-0.057
-7.964e-01,-0.055
-7.962e-01,-0.055
-7.960e-01,-0.057
-7.958e-01,-0.055
-7.956e-01,-0.055
-7.954e-01,-0.057
-7.952e-01,-0.053
-7.950e-01,-0.053
-7.948e-01,-0.053
-7.946e-01,-0.049
-7.944e-01,-0.051
-7.942e-01,-0.051
-7.940e-01,-0.049
-7.938e-01,-0.051
-7.936e-01,-0.049
-7.934e-01,-0.049
-7.932e-01,-0.053
-7.930e-01,-0.051
-7.928e-01,-0.049
-7.926e-01,-0.053
-7.924e-01,-0.055
-7.922e-01,-0.055
-7.920e-01,-0.055
-7.918e-01,-0.051
-7.916e-01,-0.055
-7.914e-01,-0.057
-7.912e-01,-0.057
-7.910e-01,-0.055
-7.908e-01,-0.057
-7.906e-01,-0.059
-7.904e-01,-0.055
-7.902e-01,-0.055
-7.900e-01,-0.055
-7.898e-01,-0.057
-7.896e-01,-0.053
-7.894e-01,-0.051
-7.892e-01,-0.053
-7.890e-01,-0.051
-7.888e-01,-0.049
-7.886e-01,-0.049
-7.884e-01,-0.047
-7.882e-01,-0.047
-7.880e-01,-0.049
-7.878e-01,-0.051
-7.876e-01,-0.049
-7.874e-01,-0.045
-7.872e-01,-0.049
-7.870e-01,-0.049
-7.868e-01,-0.051
-7.866e-01,-0.051
-7.864e-01,-0.051
-7.862e-01,-0.053
-7.860e-01,-0.053
-7.858e-01,-0.053
-7.856e-01,-0.055
-7.854e-01,-0.055
-7.852e-01,-0.055
-7.850e-01,-0.057
-7.848e-01,-0.057
-7.846e-01,-0.057
-7.844e-01,-0.055
-7.842e-01,-0.055
-7.840e-01,-0.053
-7.838e-01,-0.051
-7.836e-01,-0.051
-7.834e-01,-0.051
-7.832e-01,-0.049
-7.830e-01,-0.049
-7.828e-01,-0.049
-7.826e-01,-0.051
-7.824e-01,-0.051
-7.822e-01,-0.049
-7.820e-01,-0.051
-7.818e-01,-0.053
-7.816e-01,-0.053
